S | Glossary
…
# convert the mtcars data frame to a tibble
tibble::as_tibble(mtcars, rownames = "name")

## # A tibble: 32 x 12
##    name        mpg   cyl  disp    hp  drat    wt  qsec    vs
##    <chr>     <dbl> <dbl> <dbl> <dbl> <dbl> <dbl> <dbl> <dbl>
##  1 Mazda RX4  21       6  160    110  3.9   2.62  16.5     0
##  2 Mazda RX…  21       6  160    110  3.9   2.88  17.0     0
##  3 Datsun 7…  22.8     4  108     93  3.85  2.32  18.6     1
##  4 Hornet 4…  21.4     6  258    110  3.08  3.22  19.4     1
##  5 Hornet S…  18.7     8  360    175  3.15  3.44  17.0     0
##  6 Valiant    18.1     6  225    105  2.76  3.46  20.2     1
##  7 Duster 3…  14.3     8  360    245  3.21  3.57  15.8     0
##  8 Merc 240D  24.4     4  147.    62  3.69  3.19  20       1
##  9 Merc 230   22.8     4  141.    95  3.92  3.15  22.9     1
## 10 Merc 280   19.2     6  168.   123  3.92  3.44  18.3     1
## # … with 22 more rows, and 3 more variables: am <dbl>,
## #   gear <dbl>, carb <dbl>
…
